Search and Query CRAN R Packages • pkgsearch
…
Select the “CRAN package search” addin from the menu, or start it with pkg_search_addin().

Get package metadata

Do you want to find the dependencies the first versions of testthat had and when each of these versions was released?

cran_package_history("testthat")

#> # A tibble: 25 x 25
#>    Package Type  Title Version Author Maintainer Description URL   License LazyData
#>  * <chr>   <chr> <chr> <chr>   <chr>  <chr>      <chr>       <chr> <chr>   <chr>   
#>  1 testth… Pack… Tool… 0.1     Hadle… Hadley Wi… Test_that … http… GPL     true    
#>  2 testth… Pack… Test… 0.1.1   Hadle… Hadley Wi… A testing … http… GPL     true    
#>  3 testth… Pack… Test… 0.2     Hadle… Hadley Wi… A testing … http… GPL     true    
#>  4 testth… Pack… Test… 0.3     Hadle… Hadley Wi… A testing … http… GPL     true    
#>  5 testth… Pack… Test… 0.4     Hadle… Hadley Wi… A testing … http… GPL     true    
#>  6 testth… Pack… Test… 0.5     Hadle… Hadley Wi… A testing … http… GPL     true    
#>  7 testth… Pack… Test… 0.6     Hadle… Hadley Wi… A testing … http… GPL     true    
#>  8 testth… Pack… Test… 0.7     Hadle… Hadley Wi… A testing … http… GPL     true    
#>  9 testth… Pack… Test… 0.7.1   Hadle… Hadley Wi… A testing … http… GPL     true    
#> 10 testth… Pack… Test… 0.8     Hadle… Hadley Wi… A testing … http… MIT + … true    
#> # … with 15 more rows, and 15 more variables: Collate <chr>, Packaged <chr>,
#> #   Repository <chr>, `Date/Publication` <chr>, crandb_file_date <chr>, date <chr>,
#> #   dependencies <list>, NeedsCompilation <chr>, Roxygen <chr>, `Authors@R` <chr>,
#> #   BugReports <chr>, RoxygenNote <chr>, VignetteBuilder <chr>, Encoding <chr>,
#> #   MD5sum <chr>

Discover packages

Do you want to know what packages are trending on CRAN these days? pkgsearch can help!

cran_trending()

#> # A tibble: 100 x 2
#>    package        score                
#>    <chr>          <chr>                
#>  1 renv           5909.1482649842271300
#>  2 dplyr.teradata 1252.0332509548416100
#>  3 igraph0        1225.0053705692803400
#>  4 fable          1166.4769787894464600
#>  5 feasts         947.9253112033195000 
#>  6 fabletools     662.1727543502116300 
#>  7 AzureGraph     613.4038800705467400 
#>  8 fastmap        574.7186832058331100 
#>  9 StepReg        457.7017114914425400 
#> 10 mltools        412.4929017603634300 
#> # … with 90 more rows

cran_top_downloaded()

#> # A tibble: 100 x 2
#>    package         count 
#>    <chr>           <chr> 
#>  1 magrittr        865599
#>  2 aws.s3          724772
#>  3 aws.ec2metadata 716938
#>  4 rsconnect       698516
#>  5 rlang           338495
#>  6 Rcpp            304448
#>  7 dplyr           256401
#>  8 ellipsis        238086
#>  9 ggplot2         219573
#> 10 digest          216843
#> # … with 90 more rows
…
