…
## Get package metadata

Do you want to find the dependencies the first versions of `testthat`
had and when each of these versions was released?

``` r
cran_package_history("testthat")
```

    #> # A tibble: 24 x 25
    #>    Package Type  Title Version Author Maintainer Description URL   License LazyData
    #>  * <chr>   <chr> <chr> <chr>   <chr>  <chr>      <chr>       <chr> <chr>   <chr>   
    #>  1 testth… Pack… Tool… 0.1     Hadle… Hadley Wi… Test_that … http… GPL     true    
    #>  2 testth… Pack… Test… 0.1.1   Hadle… Hadley Wi… A testing … http… GPL     true    
    #>  3 testth… Pack… Test… 0.2     Hadle… Hadley Wi… A testing … http… GPL     true    
    #>  4 testth… Pack… Test… 0.3     Hadle… Hadley Wi… A testing … http… GPL     true    
    #>  5 testth… Pack… Test… 0.4     Hadle… Hadley Wi… A testing … http… GPL     true    
    #>  6 testth… Pack… Test… 0.5     Hadle… Hadley Wi… A testing … http… GPL     true    
    #>  7 testth… Pack… Test… 0.6     Hadle… Hadley Wi… A testing … http… GPL     true    
    #>  8 testth… Pack… Test… 0.7     Hadle… Hadley Wi… A testing … http… GPL     true    
    #>  9 testth… Pack… Test… 0.7.1   Hadle… Hadley Wi… A testing … http… GPL     true    
    #> 10 testth… Pack… Test… 0.8     Hadle… Hadley Wi… A testing … http… MIT + … true    
    #> # … with 14 more rows, and 15 more variables: Collate <chr>, Packaged <chr>,
    #> #   Repository <chr>, `Date/Publication` <chr>, crandb_file_date <chr>, date <chr>,
    #> #   dependencies <list>, NeedsCompilation <chr>, Roxygen <chr>, `Authors@R` <chr>,
    #> #   BugReports <chr>, RoxygenNote <chr>, VignetteBuilder <chr>, Encoding <chr>,
    #> #   MD5sum <chr>

## Discover packages

Do you want to know what packages are trending on CRAN these days?
`pkgsearch` can help\!

``` r
cran_trending()
```

    #> # A tibble: 100 x 2
    #>    package      score                
    #>    <chr>        <chr>                
    #>  1 random       3722.1369057343571300
    #>  2 fastmap      1539.8451530510436200
    #>  3 fuzzyforest  760.9407561774337600 
    #>  4 KernSmooth   629.8441807874601200 
    #>  5 cyclocomp    576.5858358760237700 
    #>  6 argparse     491.8775831283479200 
    #>  7 sets         486.9589461211403100 
    #>  8 binaryLogic  460.2492479587451700 
    #>  9 xmlparsedata 454.5915595000905600 
    #> 10 bayesAB      452.1981856245638500 
    #> # … with 90 more rows

``` r
cran_top_downloaded()
```

    #> # A tibble: 100 x 2
    #>    package         count 
    #>    <chr>           <chr> 
    #>  1 magrittr        798346
    #>  2 aws.s3          656735
    #>  3 aws.ec2metadata 648554
    #>  4 rsconnect       629664
    #>  5 rlang           356338
    #>  6 digest          286965
    #>  7 dplyr           265725
    #>  8 Rcpp            247808
    #>  9 ellipsis        245921
    #> 10 ggplot2         234535
    #> # … with 90 more rows
…
