Query the history of a package — cran_package_history • pkgsearch
…
cran_package_history(package)

    Arguments

      package
      Package name.

    Value

    A tibble, with one row per package version.

    Examples

cran_package_history("igraph")
#> # A tibble: 45 x 22
#>    Package Version Date  Title Author Maintainer Description License URL  
#>  * <chr>   <chr>   <chr> <chr> <chr>  <chr>      <chr>       <chr>   <chr>
#>  1 igraph  0.1.1   Janu… IGra… Gabor… Gabor Csa… Routines f… GPL ve… http…
#>  2 igraph  0.1.2   Janu… Rout… Gabor… Gabor Csa… The igraph… GPL ve… http…
#>  3 igraph  0.2     Janu… IGra… Gabor… Gabor Csa… Routines f… GPL ve… http…
#>  4 igraph  0.2.1   Janu… IGra… Gabor… Gabor Csa… Routines f… GPL ve… http…
#>  5 igraph  0.3.1   Dece… Rout… Gabor… Gabor Csa… Routines f… GPL ve… http…
#>  6 igraph  0.3.2   Dece… Rout… Gabor… Gabor Csa… Routines f… GPL ve… http…
#>  7 igraph  0.3.3   Dece… Rout… Gabor… Gabor Csa… Routines f… GPL ve… http…
#>  8 igraph  0.4     May … Rout… Gabor… Gabor Csa… Routines f… GPL ve… http…
#>  9 igraph  0.4.1   May … Rout… Gabor… Gabor Csa… Routines f… GPL ve… http…
#> 10 igraph  0.4.2   May … Rout… Gabor… Gabor Csa… Routines f… GPL ve… http…
#> # … with 35 more rows, and 13 more variables: Packaged <chr>,
#> #   crandb_file_date <chr>, date <chr>, dependencies <list>, Repository <chr>,
#> #   `Date/Publication` <chr>, SystemRequirements <chr>, NeedsCompilation <chr>,
#> #   BugReports <chr>, Collate <chr>, Encoding <chr>, RoxygenNote <chr>,
#> #   MD5sum <chr>
…
